{
  "configurations": [
    {
      "name": "x86-Debug",
      "generator": "Visual Studio 15 2017",
      "configurationType": "Debug",
      "inheritEnvironments": [ "msvc_x86" ],
      "buildRoot": "${env.USERPROFILE}\\CMakeBuilds\\${workspaceHash}\\build\\${name}",
      "installRoot": "${env.USERPROFILE}\\CMakeBuilds\\${workspaceHash}\\install\\${name}",
      "cmakeCommandArgs": "-m -v:minimal",
      "buildCommandArgs": "",
      "variables": [
        {
          "name": "CMAKE_TOOLCHAIN_FILE",
          "value": "${env.VCPKG_ROOT}/scripts/buildsystems/vcpkg.cmake"
        }
      ]
    },
    {
      "name": "x86-Release",
      "generator": "Visual Studio 15 2017",
      "configurationType": "Release",
      "inheritEnvironments": ["msvc_x86"],
      "buildRoot": "${env.USERPROFILE}\\CMakeBuilds\\${workspaceHash}\\build\\${name}",
      "installRoot": "${env.USERPROFILE}\\CMakeBuilds\\${workspaceHash}\\install\\${name}",
      "cmakeCommandArgs": "",
      "buildCommandArgs": "",
      "variables": [
        {
          "name": "CMAKE_TOOLCHAIN_FILE",
          "value": "${env.VCPKG_ROOT}/scripts/buildsystems/vcpkg.cmake"
        }
      ]
    },
    {
      "name": "x64-Debug",
      "generator": "Visual Studio 15 2017 Win64",
      "configurationType": "Debug",
      "inheritEnvironments": ["msvc_x64_x64"],
      "buildRoot": "${env.USERPROFILE}\\CMakeBuilds\\${workspaceHash}\\build\\${name}",
      "installRoot": "${env.USERPROFILE}\\CMakeBuilds\\${workspaceHash}\\install\\${name}",
      "cmakeCommandArgs": "",
      "buildCommandArgs": "",
      "variables": [
        {
          "name": "CMAKE_TOOLCHAIN_FILE",
          "value": "${env.VCPKG_ROOT}/scripts/buildsystems/vcpkg.cmake"
        }
      ]
    },
    {
      "name": "x64-Release",
      "generator": "Visual Studio 15 2017 Win64",
      "configurationType": "Release",
      "inheritEnvironments": [ "msvc_x64_x64" ],
      "buildRoot": "${env.USERPROFILE}\\CMakeBuilds\\${workspaceHash}\\build\\${name}",
      "installRoot": "${env.USERPROFILE}\\CMakeBuilds\\${workspaceHash}\\install\\${name}",
      "cmakeCommandArgs": "",
      "buildCommandArgs": "",
      "variables": [
        {
          "name": "CMAKE_TOOLCHAIN_FILE",
          "value": "${env.VCPKG_ROOT}/scripts/buildsystems/vcpkg.cmake"
        }
      ]
    }
  ]
}